Text_mining_processing_demo
…
## Joining, by = "author"

author_words # tf-idf with different group

## # A tibble: 27,038 x 7
##    author                       word      n      tf   idf  tf_idf  total
##    <chr>                        <chr> <int>   <dbl> <dbl>   <dbl>  <int>
##  1     3938 0.0216  0.182 0.00393 182536
##  2     2936 0.0161  0     0       182536
##  3     2426 0.0133  0.182 0.00242 182536
##  4       2376 0.0130  0.182 0.00237 182536
##  5     2333 0.0128  0.182 0.00233 182536
##  6     2081 0.0114  0.182 0.00208 182536
##  7           2074 0.0326  0.182 0.00594  63678
##  8     1938 0.0106  0     0       182536
##  9       1592 0.00872 0     0       182536
## 10                 1517 0.0438  0.182 0.00799  34615
## #  with 27,028 more rows
…
